…
##### Questions

Q1: How many distinct stations are there?

A1: **465**

``` r
subway_data %>% 
  select(station_name, line) %>% 
  distinct()
## # A tibble: 465 × 2
##    station_name             line    
##    <chr>                    <chr>   
##  1 25th St                  4 Avenue
##  2 36th St                  4 Avenue
##  3 45th St                  4 Avenue
##  4 53rd St                  4 Avenue
##  5 59th St                  4 Avenue
##  6 77th St                  4 Avenue
##  7 86th St                  4 Avenue
##  8 95th St                  4 Avenue
##  9 9th St                   4 Avenue
## 10 Atlantic Av-Barclays Ctr 4 Avenue
## # … with 455 more rows
```

Q2: How many stations are ADA compliant?

A2: **84**

``` r
subway_data %>%
  filter(ada == TRUE) %>% 
  select(station_name, line) %>% 
  distinct()
## # A tibble: 84 × 2
##    station_name                   line           
##    <chr>                          <chr>          
##  1 Atlantic Av-Barclays Ctr       4 Avenue       
##  2 DeKalb Av                      4 Avenue       
##  3 Pacific St                     4 Avenue       
##  4 Grand Central                  42nd St Shuttle
##  5 34th St                        6 Avenue       
##  6 47-50th Sts Rockefeller Center 6 Avenue       
##  7 Church Av                      6 Avenue       
##  8 21st St                        63rd Street    
##  9 Lexington Av                   63rd Street    
## 10 Roosevelt Island               63rd Street    
## # … with 74 more rows
```
…
*Reformat data so that route number and route name are distinct
variables.*

``` r
subway_data %>% 
  pivot_longer(
    cols = starts_with("route"),
    names_to = "route_number",
    values_to = "route",
    values_transform = list(route = as.character)) %>% 
  filter(route == "A") %>% 
  select(station_name, line, route) %>% 
  distinct()
## # A tibble: 60 × 3
##    station_name                  line            route
##    <chr>                         <chr>           <chr>
##  1 Times Square                  42nd St Shuttle A    
##  2 125th St                      8 Avenue        A    
##  3 145th St                      8 Avenue        A    
##  4 14th St                       8 Avenue        A    
##  5 168th St - Washington Heights 8 Avenue        A    
##  6 175th St                      8 Avenue        A    
##  7 181st St                      8 Avenue        A    
##  8 190th St                      8 Avenue        A    
##  9 34th St                       8 Avenue        A    
## 10 42nd St                       8 Avenue        A    
## # … with 50 more rows
…
